04/15/2014 11:00:00.179:
Error: Object reference not set to an instance of an object.
Source: App_Code.g4o268jp
TargetSite: System.Data.DataTable QueryExcel(System.String)
Line:    at ExcelManager.QueryExcel(String sql) in c:\Interfaces\MiscApp\AAModelsUpdate3\App_Code\ExcelManager.cs:line 55
   at UploadModels.Process() in c:\Interfaces\MiscApp\AAModelsUpdate3\UploadModels.aspx.cs:line 47
==============================================

